[
{"link": "https://englishextra.github.io/app/#/aids_most_commonly_used_idioms","label": "Пособия - Most Commonly Used Idioms"},
{"link": "https://englishextra.github.io/app/#/aids_topics","label": "Пособия - Топики на английском"},
{"link": "https://englishextra.github.io/app/#/articles_reading_rules_utf","label": "Статьи - Правила чтения"},
{"link": "https://englishextra.github.io/app/#/tests_advanced_grammar_in_use_level_test","label": "Тесты - Advanced Grammar in Use Level Test"},
{"link": "https://englishextra.github.io/app/#/tests_english_grammar_in_use_level_test","label": "Тесты - English Grammar in Use Level Test"},
{"link": "https://englishextra.github.io/app/#/tests_essential_grammar_in_use_level_test","label": "Тесты - Essential Grammar in Use Level Test"},
{"link": "https://englishextra.github.io/app/#/tests_ege_english_test_sample","label": "Тесты - Демо-вариант ЕГЭ-11 АЯ (ПЧ)"},
{"link": "https://englishextra.github.io/app/#/tests_ege_english_test_sample_speaking","label": "Тесты - Демо-вариант ЕГЭ-11 АЯ (УЧ)"},
{"link": "https://englishextra.github.io/app/#/tests_ege_essay_sample","label": "Тесты - ЕГЭ: Задание 40"},
{"link": "https://englishextra.github.io/app/#/tests_gia_ege_letter_sample","label": "Тесты - ГИА / ЕГЭ: Задания 33, 39, 40"},
{"link": "https://englishextra.github.io/app/#/tests_gia_english_test_sample","label": "Тесты - Демо-вариант ГИА-9 (ОГЭ) АЯ (ПЧ)"},
{"link": "https://englishextra.github.io/app/#/tests_gia_english_test_sample_speaking","label": "Тесты - Демо-вариант ГИА-9 (ОГЭ) АЯ (УЧ)"},
{"link": "https://englishextra.github.io/app/#/tests_languagelink_online_test","label": "Тесты - Уровневый тест"},
{"link": "https://englishextra.github.io/app/#/tests_common_mistakes_test_advanced","label": "Тесты - Common Mistakes Test Advanced"},
{"link": "https://englishextra.github.io/app/#/tests_english_allrussian_olympiad_regional_stage_2013","label": "Тесты - XIV Олимпиада по английскому"},
{"link": "https://englishextra.github.io/app/#/tests_grammar_tests_with_answers","label": "Тесты - Тесты по грамматике"},
{"link": "https://englishextra.github.io/app/#/grammar_all_whole_entire","label": "Грамматика - All / the whole / the entire"},
{"link": "https://englishextra.github.io/app/#/grammar_alone_by_myself_and_on_my_own","label": "Грамматика - Alone / by myself / on my own"},
{"link": "https://englishextra.github.io/app/#/grammar_attributes_order","label": "Грамматика - Порядок определений"},
{"link": "https://englishextra.github.io/app/#/grammar_can_could_be_able_to","label": "Грамматика - Can / could / be able to"},
{"link": "https://englishextra.github.io/app/#/grammar_capital_letters","label": "Грамматика - С большой или с маленькой"},
{"link": "https://englishextra.github.io/app/#/grammar_comma_before_who_which_that","label": "Грамматика - Who / which / that и запятые"},
{"link": "https://englishextra.github.io/app/#/grammar_common_and_proper_nouns","label": "Грамматика - Нарицательное / собственное"},
{"link": "https://englishextra.github.io/app/#/grammar_conditionals","label": "Грамматика - Согласование времен"},
{"link": "https://englishextra.github.io/app/#/grammar_degrees_of_comparison","label": "Грамматика - Степени сравнения"},
{"link": "https://englishextra.github.io/app/#/grammar_ex_former","label": "Грамматика - «Ex-» и «former», или Осторожно: морпехи"},
{"link": "https://englishextra.github.io/app/#/grammar_foreign_words","label": "Грамматика - Заимствованные слова"},
{"link": "https://englishextra.github.io/app/#/grammar_glossary_of_grammatical_terms","label": "Грамматика - Glossary of Grammatical Terms"},
{"link": "https://englishextra.github.io/app/#/grammar_grammar_girl_s_quick_and_dirty_grammar_at_a_glance","label": "Грамматика - Quick and Dirty Grammar"},
{"link": "https://englishextra.github.io/app/#/grammar_in_at_on","label": "Грамматика - In / at / on"},
{"link": "https://englishextra.github.io/app/#/grammar_in_hospital_at_work","label": "Грамматика - In hospital / at work etc."},
{"link": "https://englishextra.github.io/app/#/grammar_irregular_verbs","label": "Грамматика - Неправильные глаголы (таблица)"},
{"link": "https://englishextra.github.io/app/#/grammar_may_might_be_allowed_to","label": "Грамматика - May / might / be allowed to"},
{"link": "https://englishextra.github.io/app/#/grammar_modal_verbs","label": "Грамматика - Модальные глаголы"},
{"link": "https://englishextra.github.io/app/#/grammar_much_many_little_few","label": "Грамматика - Much / many / little / few"},
{"link": "https://englishextra.github.io/app/#/grammar_or_nor_neither","label": "Грамматика - Or / nor / neither"},
{"link": "https://englishextra.github.io/app/#/grammar_phrasal_verbs","label": "Грамматика - Фразовые глаголы"},
{"link": "https://englishextra.github.io/app/#/grammar_reported_speech","label": "Грамматика - Косвенная речь"},
{"link": "https://englishextra.github.io/app/#/grammar_saying_numbers","label": "Грамматика - Числа по-английски"},
{"link": "https://englishextra.github.io/app/#/grammar_stative_and_action_verbs","label": "Грамматика - Неконтиниусные глаголы"},
{"link": "https://englishextra.github.io/app/#/grammar_the_listing_comma","label": "Грамматика - Серийная запятая"},
{"link": "https://englishextra.github.io/app/#/grammar_too_enough_so_such","label": "Грамматика - Too / enough и so / such"},
{"link": "https://englishextra.github.io/app/#/grammar_to_me_for_me","label": "Грамматика - To me / for me, или Надуманная проблема"},
{"link": "https://englishextra.github.io/app/#/grammar_translating_participles","label": "Грамматика - Перевод причастий и деепричастий"},
{"link": "https://englishextra.github.io/app/#/grammar_usage_of_articles_a_the","label": "Грамматика - Артикли a / an и the"},
{"link": "https://englishextra.github.io/app/#/grammar_usage_of_hyphens","label": "Грамматика - Расстановка дефисов"},
{"link": "https://englishextra.github.io/app/#/grammar_usage_of_tenses","label": "Грамматика - Употребление времен"},
{"link": "https://englishextra.github.io/app/#/grammar_when_must_means_probably","label": "Грамматика - Когда must = «должно быть»"},
{"link": "https://englishextra.github.io/app/#/grammar_word_order","label": "Грамматика - Порядок слов в предложении"},
{"link": "https://englishextra.github.io/app/#/reading_russia_ukraine_war_conflict_vocabulary","label": "Чтение - Russia-Ukraine War Conflict"},
{"link": "https://englishextra.github.io/app/#/reading_the_man_with_the_scar","label": "Чтение - The Man with the Scar"},
{"link": "https://englishextra.github.io/app/#/transcripts_linguaspectrum_essential_british_english_expressions","label": "Транскрипты - Essential British English Expressions"},
{"link": "https://englishextra.github.io/app/#/transcripts_linguaspectrum_spell","label": "Транскрипты - 44 Most Often Misspelled Words"},
{"link": "https://englishextra.github.io/app/#/transcripts_video_vocab_transcripts","label": "Транскрипты - English Vocabulary for Business"},
{"link": "https://englishextra.github.io/app/#/webdev_about","label": "О приложении «Английский без регистрации»"}
]
